dump.vcd
$date
	Wed May 27 21:12:24 2026
$end
$version
	Icarus Verilog
$end
$timescale
	1ps
$end
$scope module tb_top $end
$var reg 1 ! clk $end
$var reg 1 " rst $end
$scope module dut $end
$var wire 1 ! clk $end
$var wire 1 " rst $end
$var wire 2 # wb_sel [1:0] $end
$var wire 1 $ take_branch $end
$var wire 32 % rs2_data [31:0] $end
$var wire 5 & rs2_addr [4:0] $end
$var wire 32 ' rs1_data [31:0] $end
$var wire 5 ( rs1_addr [4:0] $end
$var wire 1 ) regWrite $end
$var wire 5 * rd_addr [4:0] $end
$var wire 32 + pc_next [31:0] $end
$var wire 2 , pc_control [1:0] $end
$var wire 7 - opcode [6:0] $end
$var wire 32 . mem_rdata [31:0] $end
$var wire 1 / memWrite $end
$var wire 4 0 memControl [3:0] $end
$var wire 32 1 instr [31:0] $end
$var wire 32 2 imm [31:0] $end
$var wire 7 3 func7 [6:0] $end
$var wire 3 4 func3 [2:0] $end
$var wire 3 5 branch_control [2:0] $end
$var wire 32 6 alu_result [31:0] $end
$var wire 32 7 alu_b [31:0] $end
$var wire 32 8 alu_a [31:0] $end
$var wire 1 9 aluSrcB $end
$var wire 1 : aluSrcA $end
$var wire 4 ; aluControl [3:0] $end
$var reg 32 < pc [31:0] $end
$var reg 32 = wb_data [31:0] $end
$scope module alu0 $end
$var wire 32 > srcA [31:0] $end
$var wire 32 ? srcB [31:0] $end
$var wire 4 @ opcode [3:0] $end
$var reg 32 A result [31:0] $end
$upscope $end
$scope module bu $end
$var wire 32 B operB [31:0] $end
$var wire 32 C operA [31:0] $end
$var wire 3 D opcode [2:0] $end
$var reg 1 $ take_branch $end
$upscope $end
$scope module cu $end
$var wire 3 E func3 [2:0] $end
$var wire 7 F func7 [6:0] $end
$var wire 7 G opcode [6:0] $end
$var reg 4 H aluControl [3:0] $end
$var reg 1 : aluSrcA $end
$var reg 1 9 aluSrcB $end
$var reg 3 I branch_control [2:0] $end
$var reg 4 J memControl [3:0] $end
$var reg 1 / memWrite $end
$var reg 2 K pc_control [1:0] $end
$var reg 1 ) regWrite $end
$var reg 2 L wb_sel [1:0] $end
$upscope $end
$scope module dmem0 $end
$var wire 12 M addr [11:0] $end
$var wire 1 ! clk $end
$var wire 4 N memControl [3:0] $end
$var wire 1 / we $end
$var wire 32 O wdata [31:0] $end
$var reg 32 P rdata [31:0] $end
$upscope $end
$scope module imem $end
$var wire 10 Q addr [9:0] $end
$var wire 32 R data [31:0] $end
$scope begin $unm_blk_30 $end
$var integer 32 S i [31:0] $end
$upscope $end
$upscope $end
$scope module immu $end
$var wire 32 T instruction [31:0] $end
$var wire 7 U opcode [6:0] $end
$var parameter 7 V OPCODE_AUIPC $end
$var parameter 7 W OPCODE_BRANCH $end
$var parameter 7 X OPCODE_JAL $end
$var parameter 7 Y OPCODE_JALR $end
$var parameter 7 Z OPCODE_LOAD $end
$var parameter 7 [ OPCODE_LUI $end
$var parameter 7 \ OPCODE_OP $end
$var parameter 7 ] OPCODE_OP_IMM $end
$var parameter 7 ^ OPCODE_STORE $end
$var parameter 7 _ OPCODE_SYSTEM $end
$var reg 32 ` imm [31:0] $end
$upscope $end
$scope module pcu $end
$var wire 32 a current_pc [31:0] $end
$var wire 32 b imm_jump [31:0] $end
$var wire 2 c sel [1:0] $end
$var wire 1 $ take_branch $end
$var reg 32 d pc_next [31:0] $end
$upscope $end
$scope module rf $end
$var wire 5 e addr_rd [4:0] $end
$var wire 5 f addr_rs1 [4:0] $end
$var wire 5 g addr_rs2 [4:0] $end
$var wire 1 ! clk $end
$var wire 32 h rd [31:0] $end
$var wire 1 " rst $end
$var wire 1 ) we $end
$var wire 32 i rs2 [31:0] $end
$var wire 32 j rs1 [31:0] $end
$var parameter 32 k REG_COUNT $end
$upscope $end
$upscope $end
$upscope $end
$enddefinitions $end
$comment Show the parameter values. $end
$dumpall
b100000 k
b1110011 _
b100011 ^
b10011 ]
b110011 \
b110111 [
b11 Z
b1100111 Y
b1101111 X
b1100011 W
b10111 V
$end
#0
$dumpvars
bx j
bx i
bx h
bx g
bx f
bx e
bx d
b0 c
bx b
bx a
bx `
bx U
bx T
b10000000000 S
bx R
bx Q
bx P
bx O
b0 N
bx M
b0 L
b0 K
b0 J
b0 I
b0 H
bx G
bx F
bx E
b0 D
bx C
bx B
bx A
b0 @
bx ?
bx >
bx =
bx <
b0 ;
0:
09
bx 8
bx 7
bx 6
b0 5
bx 4
bx 3
bx 2
bx 1
b0 0
0/
bx .
bx -
b0 ,
bx +
bx *
0)
bx (
bx '
bx &
bx %
x$
b0 #
1"
0!
$end
#5000
b0 M
b0 6
b0 A
b0 b
b0 7
b0 ?
b0 8
b0 >
1$
b1000000000000 =
b1000000000000 h
b0 %
b0 B
b0 O
b0 i
b0 '
b0 C
b0 j
b10 #
b10 L
1)
b1000000000000 2
b1000000000000 `
b110111 U
b10 *
b10 e
b0 &
b0 g
b0 (
b0 f
b0 3
b0 F
b1 4
b1 E
b110111 -
b110111 G
b1000100110111 1
b1000100110111 R
b1000100110111 T
b0 Q
b100 +
b100 d
b0 <
b0 a
1!
#10000
0!
#15000
1!
#20000
0!
0"
#25000
b1100 M
b1100 6
b1100 A
b1100 b
x$
b100 8
b100 >
b1000 7
b1000 ?
b1000 =
b1000 h
bx %
bx B
bx O
bx i
1:
19
b10 ,
b10 K
b10 c
b11 #
b11 L
1)
b1000 2
b1000 `
b1101111 U
b1 *
b1 e
b1000 &
b1000 g
b0 4
b0 E
b1101111 -
b1101111 G
b100000000000000011101111 1
b100000000000000011101111 R
b100000000000000011101111 T
b100 Q
b1100 +
b1100 d
b100 <
b100 a
1!
#30000
0!
#35000
0$
b11111111111111111111111111100000 7
b11111111111111111111111111100000 ?
b0 %
b0 B
b0 O
b0 i
b1000000000000 '
b1000000000000 C
b1000000000000 j
b0 #
b0 L
19
0:
b0 ,
b0 K
b0 c
1)
b11111111111111111111111111100000 2
b11111111111111111111111111100000 `
b10011 U
b10 *
b10 e
b0 &
b0 g
b10 (
b10 f
b1111111 3
b1111111 F
b10011 -
b10011 G
b10000 +
b10000 d
b111111100000 M
b11111110000000010000000100010011 1
b11111110000000010000000100010011 R
b11111110000000010000000100010011 T
b111111100000 6
b111111100000 A
b111111100000 b
b1100 Q
b1000000000000 8
b1000000000000 >
b111111100000 =
b111111100000 h
b1100 <
b1100 a
1!
#40000
0!
#45000
b0 .
b0 P
b111111111100 M
b11100 7
b11100 ?
b111111111100 =
b111111111100 h
b1000 %
b1000 B
b1000 O
b1000 i
b1010 0
b1010 J
b1010 N
1/
19
0)
b111111111100 6
b111111111100 A
b111111111100 b
b11100 2
b11100 `
b100011 U
b11100 *
b11100 e
b1 &
b1 g
b0 3
b0 F
b10 4
b10 E
b100011 -
b100011 G
b111111100000 8
b111111100000 >
b100010010111000100011 1
b100010010111000100011 R
b100010010111000100011 T
b111111100000 '
b111111100000 C
b111111100000 j
b10000 Q
b10100 +
b10100 d
b10000 <
b10000 a
1!
#50000
0!
#55000
b111111111000 M
b111111111000 =
b111111111000 h
b111111111000 6
b111111111000 A
b111111111000 b
x$
b11000 7
b11000 ?
bx %
bx B
bx O
bx i
b11000 2
b11000 `
b11000 *
b11000 e
b1000 &
b1000 g
b100000010010110000100011 1
b100000010010110000100011 R
b100000010010110000100011 T
b10100 Q
b11000 +
b11000 d
b10100 <
b10100 a
1!
#60000
0!
#65000
b0 M
b1000000000000 =
b1000000000000 h
b1000000000000 6
b1000000000000 A
b1000000000000 b
0$
bx .
bx P
b100000 7
b100000 ?
b0 %
b0 B
b0 O
b0 i
1)
19
b0 0
b0 J
b0 N
0/
b100000 2
b100000 `
b10011 U
b1000 *
b1000 e
b0 &
b0 g
b1 3
b1 F
b0 4
b0 E
b10011 -
b10011 G
b10000000010000010000010011 1
b10000000010000010000010011 R
b10000000010000010000010011 T
b11000 Q
b11100 +
b11100 d
b11000 <
b11000 a
1!
#70000
0!
#75000
b111111101100 M
b111111101100 =
b111111101100 h
b111111101100 6
b111111101100 A
b111111101100 b
b1000000000000 8
b1000000000000 >
b0 .
b0 P
b11111111111111111111111111101100 7
b11111111111111111111111111101100 ?
b1000000000000 '
b1000000000000 C
b1000000000000 j
b1010 0
b1010 J
b1010 N
1/
19
0)
b11111111111111111111111111101100 2
b11111111111111111111111111101100 `
b100011 U
b1100 *
b1100 e
b1000 (
b1000 f
b1111111 3
b1111111 F
b10 4
b10 E
b100011 -
b100011 G
b11111110000001000010011000100011 1
b11111110000001000010011000100011 R
b11111110000001000010011000100011 T
b11100 Q
b100000 +
b100000 d
b11100 <
b11100 a
1!
#80000
0!
#85000
bx .
bx P
b1 M
b1 =
b1 h
b1 6
b1 A
b1 b
b0 8
b0 >
b1 7
b1 ?
b1000 %
b1000 B
b1000 O
b1000 i
b0 '
b0 C
b0 j
1)
19
b0 0
b0 J
b0 N
0/
b1 2
b1 `
b10011 U
b1111 *
b1111 e
b1 &
b1 g
b0 (
b0 f
b0 3
b0 F
b0 4
b0 E
b10011 -
b10011 G
b100000000011110010011 1
b100000000011110010011 R
b100000000011110010011 T
b100000 Q
b100100 +
b100100 d
b100000 <
b100000 a
1!
#90000
0!
#95000
b111111101000 M
b111111101000 =
b111111101000 h
b111111101000 6
b111111101000 A
b111111101000 b
b1000000000000 8
b1000000000000 >
b0 .
b0 P
b11111111111111111111111111101000 7
b11111111111111111111111111101000 ?
b1 %
b1 B
b1 O
b1 i
b1000000000000 '
b1000000000000 C
b1000000000000 j
b1010 0
b1010 J
b1010 N
1/
19
0)
b11111111111111111111111111101000 2
b11111111111111111111111111101000 `
b100011 U
b1000 *
b1000 e
b1111 &
b1111 g
b1000 (
b1000 f
b1111111 3
b1111111 F
b10 4
b10 E
b100011 -
b100011 G
b11111110111101000010010000100011 1
b11111110111101000010010000100011 R
b11111110111101000010010000100011 T
b100100 Q
b101000 +
b101000 d
b100100 <
b100100 a
1!
#100000
0!
#105000
b111111100100 M
b111111100100 =
b111111100100 h
b111111100100 6
b111111100100 A
b111111100100 b
b11111111111111111111111111100100 7
b11111111111111111111111111100100 ?
b0 %
b0 B
b0 O
b0 i
b11111111111111111111111111100100 2
b11111111111111111111111111100100 `
b100 *
b100 e
b0 &
b0 g
b11111110000001000010001000100011 1
b11111110000001000010001000100011 R
b11111110000001000010001000100011 T
b101000 Q
b101100 +
b101100 d
b101000 <
b101000 a
1!
#110000
0!
#115000
bx .
bx P
b1011100 M
b1011100 6
b1011100 A
b1011100 b
x$
b101100 8
b101100 >
b110000 7
b110000 ?
b110000 =
b110000 h
bx %
bx B
bx O
bx i
b0 '
b0 C
b0 j
1:
b11 #
b11 L
b10 ,
b10 K
b10 c
1)
19
b0 0
b0 J
b0 N
0/
b110000 2
b110000 `
b1101111 U
b0 *
b0 e
b10000 &
b10000 g
b0 (
b0 f
b1 3
b1 F
b0 4
b0 E
b1101111 -
b1101111 G
b11000000000000000001101111 1
b11000000000000000001101111 R
b11000000000000000001101111 T
b101100 Q
b1011100 +
b1011100 d
b101100 <
b101100 a
1!
#120000
0!
#125000
b0 .
b0 P
b11111111111111111111111111100100 7
b11111111111111111111111111100100 ?
b1000000000000 '
b1000000000000 C
b1000000000000 j
b111 0
b111 J
b111 N
b1 #
b1 L
19
0:
b0 ,
b0 K
b0 c
1)
b11111111111111111111111111100100 2
b11111111111111111111111111100100 `
b11 U
b1110 *
b1110 e
b100 &
b100 g
b1000 (
b1000 f
b1111111 3
b1111111 F
b10 4
b10 E
b11 -
b11 G
b1100000 +
b1100000 d
b111111100100 M
b11111110010001000010011100000011 1
b11111110010001000010011100000011 R
b11111110010001000010011100000011 T
b111111100100 6
b111111100100 A
b111111100100 b
b1011100 Q
b1000000000000 8
b1000000000000 >
b0 =
b0 h
b1011100 <
b1011100 a
1!
#130000
0!
#135000
bx .
bx P
b1100011 M
b1100011 6
b1100011 A
b1100011 b
b0 8
b0 >
b1100011 7
b1100011 ?
b1100011 =
b1100011 h
b0 '
b0 C
b0 j
b0 #
b0 L
19
b0 0
b0 J
b0 N
1)
b1100011 2
b1100011 `
b10011 U
b1111 *
b1111 e
b11 &
b11 g
b0 (
b0 f
b11 3
b11 F
b0 4
b0 E
b10011 -
b10011 G
b110001100000000011110010011 1
b110001100000000011110010011 R
b110001100000000011110010011 T
b1100000 Q
b1100100 +
b1100100 d
b1100000 <
b1100000 a
1!
#140000
0!
#145000
b110000 M
b110000 =
b110000 h
b110000 6
b110000 A
b110000 b
b1100100 8
b1100100 >
1$
b11111111111111111111111111001100 7
b11111111111111111111111111001100 ?
b0 %
b0 B
b0 O
b0 i
b1100011 '
b1100011 C
b1100011 j
1:
b101 5
b101 D
b101 I
b1 ,
b1 K
b1 c
19
0)
b11111111111111111111111111001100 2
b11111111111111111111111111001100 `
b1100011 U
b1101 *
b1101 e
b1110 &
b1110 g
b1111 (
b1111 f
b1111110 3
b1111110 F
b101 4
b101 E
b1100011 -
b1100011 G
b11111100111001111101011011100011 1
b11111100111001111101011011100011 R
b11111100111001111101011011100011 T
b1100100 Q
b110000 +
b110000 d
b1100100 <
b1100100 a
1!
#150000
0!
#155000
x$
b11111111111111111111111111101100 7
b11111111111111111111111111101100 ?
bx %
bx B
bx O
bx i
b1000000000000 '
b1000000000000 C
b1000000000000 j
b111 0
b111 J
b111 N
b1 #
b1 L
1)
19
0:
b0 5
b0 D
b0 I
b0 ,
b0 K
b0 c
b0 .
b0 P
b11111111111111111111111111101100 2
b11111111111111111111111111101100 `
b11 U
b1110 *
b1110 e
b1100 &
b1100 g
b1000 (
b1000 f
b1111111 3
b1111111 F
b10 4
b10 E
b11 -
b11 G
b110100 +
b110100 d
b111111101100 M
b0 =
b0 h
b11111110110001000010011100000011 1
b11111110110001000010011100000011 R
b11111110110001000010011100000011 T
b111111101100 6
b111111101100 A
b111111101100 b
b110000 Q
b1000000000000 8
b1000000000000 >
b110000 <
b110000 a
1!
#160000
0!
#165000
b1 =
b1 h
b1 .
b1 P
b111111101000 M
b111111101000 6
b111111101000 A
b111111101000 b
1$
b11111111111111111111111111101000 7
b11111111111111111111111111101000 ?
b1000000000000 %
b1000000000000 B
b1000000000000 O
b1000000000000 i
b11111111111111111111111111101000 2
b11111111111111111111111111101000 `
b1111 *
b1111 e
b1000 &
b1000 g
b11111110100001000010011110000011 1
b11111110100001000010011110000011 R
b11111110100001000010011110000011 T
b110100 Q
b111000 +
b111000 d
b110100 <
b110100 a
1!
#170000
0!
#175000
bx .
bx P
b1 M
b1 6
b1 A
b1 b
b0 8
b0 >
0$
b1 7
b1 ?
b1 =
b1 h
b1 %
b1 B
b1 O
b1 i
b0 '
b0 C
b0 j
b0 #
b0 L
09
b0 0
b0 J
b0 N
1)
b0 2
b0 `
b110011 U
b1111 &
b1111 g
b1110 (
b1110 f
b0 3
b0 F
b0 4
b0 E
b110011 -
b110011 G
b111101110000011110110011 1
b111101110000011110110011 R
b111101110000011110110011 T
b111000 Q
b111100 +
b111100 d
b111000 <
b111000 a
1!
#180000
0!
#185000
b111111100000 M
b111111100000 =
b111111100000 h
b111111100000 6
b111111100000 A
b111111100000 b
b1000000000000 8
b1000000000000 >
b11111111111111111111111111100000 7
b11111111111111111111111111100000 ?
b0 .
b0 P
b1000000000000 '
b1000000000000 C
b1000000000000 j
19
b1010 0
b1010 J
b1010 N
1/
0)
b11111111111111111111111111100000 2
b11111111111111111111111111100000 `
b100011 U
b0 *
b0 e
b1000 (
b1000 f
b1111111 3
b1111111 F
b10 4
b10 E
b100011 -
b100011 G
b11111110111101000010000000100011 1
b11111110111101000010000000100011 R
b11111110111101000010000000100011 T
b111100 Q
b1000000 +
b1000000 d
b111100 <
b111100 a
1!
#190000
0!
#195000
b111111101000 M
b111111101000 6
b111111101000 A
b111111101000 b
1$
b1 .
b1 P
b11111111111111111111111111101000 7
b11111111111111111111111111101000 ?
b1 =
b1 h
b1000000000000 %
b1000000000000 B
b1000000000000 O
b1000000000000 i
b1 #
b1 L
1)
19
b111 0
b111 J
b111 N
0/
b11111111111111111111111111101000 2
b11111111111111111111111111101000 `
b11 U
b1111 *
b1111 e
b1000 &
b1000 g
b11 -
b11 G
b11111110100001000010011110000011 1
b11111110100001000010011110000011 R
b11111110100001000010011110000011 T
b1000000 Q
b1000100 +
b1000100 d
b1000000 <
b1000000 a
1!
#200000
0!
#205000
b111111101100 M
b111111101100 6
b111111101100 A
b111111101100 b
0$
b0 .
b0 P
b11111111111111111111111111101100 7
b11111111111111111111111111101100 ?
b111111101100 =
b111111101100 h
b1 %
b1 B
b1 O
b1 i
1/
b0 #
b0 L
19
b1010 0
b1010 J
b1010 N
0)
b11111111111111111111111111101100 2
b11111111111111111111111111101100 `
b100011 U
b1100 *
b1100 e
b1111 &
b1111 g
b100011 -
b100011 G
b11111110111101000010011000100011 1
b11111110111101000010011000100011 R
b11111110111101000010011000100011 T
b1000100 Q
b1001000 +
b1001000 d
b1000100 <
b1000100 a
1!
#210000
0!
#215000
b111111100000 M
b111111100000 6
b111111100000 A
b111111100000 b
b1 .
b1 P
b11111111111111111111111111100000 7
b11111111111111111111111111100000 ?
b1 =
b1 h
b0 %
b0 B
b0 O
b0 i
b1 #
b1 L
1)
19
b111 0
b111 J
b111 N
0/
b11111111111111111111111111100000 2
b11111111111111111111111111100000 `
b11 U
b1111 *
b1111 e
b0 &
b0 g
b11 -
b11 G
b11111110000001000010011110000011 1
b11111110000001000010011110000011 R
b11111110000001000010011110000011 T
b1001000 Q
b1001100 +
b1001100 d
b1001000 <
b1001000 a
1!
#220000
0!
#225000
b111111101000 M
b111111101000 6
b111111101000 A
b111111101000 b
b0 .
b0 P
b11111111111111111111111111101000 7
b11111111111111111111111111101000 ?
b111111101000 =
b111111101000 h
b1 %
b1 B
b1 O
b1 i
1/
b0 #
b0 L
19
b1010 0
b1010 J
b1010 N
0)
b11111111111111111111111111101000 2
b11111111111111111111111111101000 `
b100011 U
b1000 *
b1000 e
b1111 &
b1111 g
b100011 -
b100011 G
b11111110111101000010010000100011 1
b11111110111101000010010000100011 R
b11111110111101000010010000100011 T
b1001100 Q
b1010000 +
b1010000 d
b1001100 <
b1001100 a
1!
#230000
0!
#235000
b111111100100 M
b111111100100 6
b111111100100 A
b111111100100 b
x$
b0 .
b0 P
b11111111111111111111111111100100 7
b11111111111111111111111111100100 ?
b0 =
b0 h
bx %
bx B
bx O
bx i
b1 #
b1 L
1)
19
b111 0
b111 J
b111 N
0/
b11111111111111111111111111100100 2
b11111111111111111111111111100100 `
b11 U
b1111 *
b1111 e
b100 &
b100 g
b11 -
b11 G
b11111110010001000010011110000011 1
b11111110010001000010011110000011 R
b11111110010001000010011110000011 T
b1010000 Q
b1010100 +
b1010100 d
b1010000 <
b1010000 a
1!
#240000
0!
#245000
bx .
bx P
b1 M
b1 6
b1 A
b1 b
b0 8
b0 >
0$
b1 7
b1 ?
b1 =
b1 h
b1000 %
b1000 B
b1000 O
b1000 i
b0 '
b0 C
b0 j
b0 #
b0 L
19
b0 0
b0 J
b0 N
1)
b1 2
b1 `
b10011 U
b1 &
b1 g
b1111 (
b1111 f
b0 3
b0 F
b0 4
b0 E
b10011 -
b10011 G
b101111000011110010011 1
b101111000011110010011 R
b101111000011110010011 T
b1010100 Q
b1011000 +
b1011000 d
b1010100 <
b1010100 a
1!
#250000
0!
#255000
b0 .
b0 P
b11111111111111111111111111100100 7
b11111111111111111111111111100100 ?
b1 %
b1 B
b1 O
b1 i
b1010 0
b1010 J
b1010 N
1/
19
0)
b111111100100 M
b111111100100 =
b111111100100 h
b11111111111111111111111111100100 2
b11111111111111111111111111100100 `
b100011 U
b100 *
b100 e
b1111 &
b1111 g
b1000 (
b1000 f
b1111111 3
b1111111 F
b10 4
b10 E
b100011 -
b100011 G
b111111100100 6
b111111100100 A
b111111100100 b
b11111110111101000010001000100011 1
b11111110111101000010001000100011 R
b11111110111101000010001000100011 T
b1000000000000 8
b1000000000000 >
b1011000 Q
b1011100 +
b1011100 d
b1000000000000 '
b1000000000000 C
b1000000000000 j
b1011000 <
b1011000 a
1!
#260000
0!
#265000
x$
b1 =
b1 h
b1 .
b1 P
bx %
bx B
bx O
bx i
b1 #
b1 L
1)
19
b111 0
b111 J
b111 N
0/
b11 U
b1110 *
b1110 e
b100 &
b100 g
b11 -
b11 G
b11111110010001000010011100000011 1
b11111110010001000010011100000011 R
b11111110010001000010011100000011 T
b1011100 Q
b1100000 +
b1100000 d
b1011100 <
b1011100 a
1!
#270000
0!
#275000
bx .
bx P
b1100011 M
b1100011 6
b1100011 A
b1100011 b
b0 8
b0 >
b1100011 7
b1100011 ?
b1100011 =
b1100011 h
b0 '
b0 C
b0 j
b0 #
b0 L
19
b0 0
b0 J
b0 N
1)
b1100011 2
b1100011 `
b10011 U
b1111 *
b1111 e
b11 &
b11 g
b0 (
b0 f
b11 3
b11 F
b0 4
b0 E
b10011 -
b10011 G
b110001100000000011110010011 1
b110001100000000011110010011 R
b110001100000000011110010011 T
b1100000 Q
b1100100 +
b1100100 d
b1100000 <
b1100000 a
1!
#280000
0!
#285000
b110000 M
b110000 =
b110000 h
b110000 6
b110000 A
b110000 b
b1100100 8
b1100100 >
1$
b11111111111111111111111111001100 7
b11111111111111111111111111001100 ?
b1 %
b1 B
b1 O
b1 i
b1100011 '
b1100011 C
b1100011 j
1:
b101 5
b101 D
b101 I
b1 ,
b1 K
b1 c
19
0)
b11111111111111111111111111001100 2
b11111111111111111111111111001100 `
b1100011 U
b1101 *
b1101 e
b1110 &
b1110 g
b1111 (
b1111 f
b1111110 3
b1111110 F
b101 4
b101 E
b1100011 -
b1100011 G
b11111100111001111101011011100011 1
b11111100111001111101011011100011 R
b11111100111001111101011011100011 T
b1100100 Q
b110000 +
b110000 d
b1100100 <
b1100100 a
1!
#290000
0!
#295000
x$
b11111111111111111111111111101100 7
b11111111111111111111111111101100 ?
bx %
bx B
bx O
bx i
b1000000000000 '
b1000000000000 C
b1000000000000 j
b111 0
b111 J
b111 N
b1 #
b1 L
1)
19
0:
b0 5
b0 D
b0 I
b0 ,
b0 K
b0 c
b1 .
b1 P
b11111111111111111111111111101100 2
b11111111111111111111111111101100 `
b11 U
b1110 *
b1110 e
b1100 &
b1100 g
b1000 (
b1000 f
b1111111 3
b1111111 F
b10 4
b10 E
b11 -
b11 G
b110100 +
b110100 d
b111111101100 M
b1 =
b1 h
b11111110110001000010011100000011 1
b11111110110001000010011100000011 R
b11111110110001000010011100000011 T
b111111101100 6
b111111101100 A
b111111101100 b
b110000 Q
b1000000000000 8
b1000000000000 >
b110000 <
b110000 a
1!
#300000
0!
#305000
b111111101000 M
b111111101000 6
b111111101000 A
b111111101000 b
1$
b11111111111111111111111111101000 7
b11111111111111111111111111101000 ?
b1000000000000 %
b1000000000000 B
b1000000000000 O
b1000000000000 i
b11111111111111111111111111101000 2
b11111111111111111111111111101000 `
b1111 *
b1111 e
b1000 &
b1000 g
b11111110100001000010011110000011 1
b11111110100001000010011110000011 R
b11111110100001000010011110000011 T
b110100 Q
b111000 +
b111000 d
b110100 <
b110100 a
1!
#310000
0!
#315000
bx .
bx P
b10 M
b10 6
b10 A
b10 b
b1 8
b1 >
b1 7
b1 ?
b10 =
b10 h
b1 %
b1 B
b1 O
b1 i
b1 '
b1 C
b1 j
b0 #
b0 L
09
b0 0
b0 J
b0 N
1)
b0 2
b0 `
b110011 U
b1111 &
b1111 g
b1110 (
b1110 f
b0 3
b0 F
b0 4
b0 E
b110011 -
b110011 G
b111101110000011110110011 1
b111101110000011110110011 R
b111101110000011110110011 T
b111000 Q
b111100 +
b111100 d
b111000 <
b111000 a
1!
#320000
0!
#325000
b1000000000000 8
b1000000000000 >
b0 .
b0 P
b111111100000 M
b111111100000 =
b111111100000 h
b1000000000000 '
b1000000000000 C
b1000000000000 j
19
b1010 0
b1010 J
b1010 N
1/
0)
b111111100000 6
b111111100000 A
b111111100000 b
b11111111111111111111111111100000 2
b11111111111111111111111111100000 `
b100011 U
b0 *
b0 e
b1000 (
b1000 f
b1111111 3
b1111111 F
b10 4
b10 E
b100011 -
b100011 G
b11111111111111111111111111100000 7
b11111111111111111111111111100000 ?
0$
b11111110111101000010000000100011 1
b11111110111101000010000000100011 R
b11111110111101000010000000100011 T
b10 %
b10 B
b10 O
b10 i
b111100 Q
b1000000 +
b1000000 d
b111100 <
b111100 a
1!
#330000
0!
#335000
b111111101000 M
b111111101000 6
b111111101000 A
b111111101000 b
1$
b1 .
b1 P
b11111111111111111111111111101000 7
b11111111111111111111111111101000 ?
b1 =
b1 h
b1000000000000 %
b1000000000000 B
b1000000000000 O
b1000000000000 i
b1 #
b1 L
1)
19
b111 0
b111 J
b111 N
0/
b11111111111111111111111111101000 2
b11111111111111111111111111101000 `
b11 U
b1111 *
b1111 e
b1000 &
b1000 g
b11 -
b11 G
b11111110100001000010011110000011 1
b11111110100001000010011110000011 R
b11111110100001000010011110000011 T
b1000000 Q
b1000100 +
b1000100 d
b1000000 <
b1000000 a
1!
#340000
0!
#345000
b111111101100 M
b111111101100 6
b111111101100 A
b111111101100 b
0$
b0 .
b0 P
b11111111111111111111111111101100 7
b11111111111111111111111111101100 ?
b111111101100 =
b111111101100 h
b1 %
b1 B
b1 O
b1 i
1/
b0 #
b0 L
19
b1010 0
b1010 J
b1010 N
0)
b11111111111111111111111111101100 2
b11111111111111111111111111101100 `
b100011 U
b1100 *
b1100 e
b1111 &
b1111 g
b100011 -
b100011 G
b11111110111101000010011000100011 1
b11111110111101000010011000100011 R
b11111110111101000010011000100011 T
b1000100 Q
b1001000 +
b1001000 d
b1000100 <
b1000100 a
1!
#350000
0!
#355000
b111111100000 M
b111111100000 6
b111111100000 A
b111111100000 b
b10 .
b10 P
b11111111111111111111111111100000 7
b11111111111111111111111111100000 ?
b10 =
b10 h
b0 %
b0 B
b0 O
b0 i
b1 #
b1 L
1)
19
b111 0
b111 J
b111 N
0/
b11111111111111111111111111100000 2
b11111111111111111111111111100000 `
b11 U
b1111 *
b1111 e
b0 &
b0 g
b11 -
b11 G
b11111110000001000010011110000011 1
b11111110000001000010011110000011 R
b11111110000001000010011110000011 T
b1001000 Q
b1001100 +
b1001100 d
b1001000 <
b1001000 a
1!
#360000
0!
#365000
b111111101000 M
b111111101000 6
b111111101000 A
b111111101000 b
b0 .
b0 P
b11111111111111111111111111101000 7
b11111111111111111111111111101000 ?
b111111101000 =
b111111101000 h
b10 %
b10 B
b10 O
b10 i
1/
b0 #
b0 L
19
b1010 0
b1010 J
b1010 N
0)
b11111111111111111111111111101000 2
b11111111111111111111111111101000 `
b100011 U
b1000 *
b1000 e
b1111 &
b1111 g
b100011 -
b100011 G
b11111110111101000010010000100011 1
b11111110111101000010010000100011 R
b11111110111101000010010000100011 T
b1001100 Q
b1010000 +
b1010000 d
b1001100 <
b1001100 a
1!
#370000
0!
#375000
b111111100100 M
b111111100100 6
b111111100100 A
b111111100100 b
x$
b1 .
b1 P
b11111111111111111111111111100100 7
b11111111111111111111111111100100 ?
b1 =
b1 h
bx %
bx B
bx O
bx i
b1 #
b1 L
1)
19
b111 0
b111 J
b111 N
0/
b11111111111111111111111111100100 2
b11111111111111111111111111100100 `
b11 U
b1111 *
b1111 e
b100 &
b100 g
b11 -
b11 G
b11111110010001000010011110000011 1
b11111110010001000010011110000011 R
b11111110010001000010011110000011 T
b1010000 Q
b1010100 +
b1010100 d
b1010000 <
b1010000 a
1!
#380000
0!
#385000
bx .
bx P
b10 M
b10 6
b10 A
b10 b
b1 8
b1 >
0$
b1 7
b1 ?
b10 =
b10 h
b1000 %
b1000 B
b1000 O
b1000 i
b1 '
b1 C
b1 j
b0 #
b0 L
19
b0 0
b0 J
b0 N
1)
b1 2
b1 `
b10011 U
b1 &
b1 g
b1111 (
b1111 f
b0 3
b0 F
b0 4
b0 E
b10011 -
b10011 G
b101111000011110010011 1
b101111000011110010011 R
b101111000011110010011 T
b1010100 Q
b1011000 +
b1011000 d
b1010100 <
b1010100 a
1!
#390000
0!
#395000
b0 .
b0 P
b11111111111111111111111111100100 7
b11111111111111111111111111100100 ?
b10 %
b10 B
b10 O
b10 i
b1010 0
b1010 J
b1010 N
1/
19
0)
b111111100100 M
b111111100100 =
b111111100100 h
b11111111111111111111111111100100 2
b11111111111111111111111111100100 `
b100011 U
b100 *
b100 e
b1111 &
b1111 g
b1000 (
b1000 f
b1111111 3
b1111111 F
b10 4
b10 E
b100011 -
b100011 G
b111111100100 6
b111111100100 A
b111111100100 b
b11111110111101000010001000100011 1
b11111110111101000010001000100011 R
b11111110111101000010001000100011 T
b1000000000000 8
b1000000000000 >
b1011000 Q
b1011100 +
b1011100 d
b1000000000000 '
b1000000000000 C
b1000000000000 j
b1011000 <
b1011000 a
1!
#400000
0!
#405000
x$
b10 =
b10 h
b10 .
b10 P
bx %
bx B
bx O
bx i
b1 #
b1 L
1)
19
b111 0
b111 J
b111 N
0/
b11 U
b1110 *
b1110 e
b100 &
b100 g
b11 -
b11 G
b11111110010001000010011100000011 1
b11111110010001000010011100000011 R
b11111110010001000010011100000011 T
b1011100 Q
b1100000 +
b1100000 d
b1011100 <
b1011100 a
1!
#410000
0!
#415000
bx .
bx P
b1100011 M
b1100011 6
b1100011 A
b1100011 b
b0 8
b0 >
b1100011 7
b1100011 ?
b1100011 =
b1100011 h
b0 '
b0 C
b0 j
b0 #
b0 L
19
b0 0
b0 J
b0 N
1)
b1100011 2
b1100011 `
b10011 U
b1111 *
b1111 e
b11 &
b11 g
b0 (
b0 f
b11 3
b11 F
b0 4
b0 E
b10011 -
b10011 G
b110001100000000011110010011 1
b110001100000000011110010011 R
b110001100000000011110010011 T
b1100000 Q
b1100100 +
b1100100 d
b1100000 <
b1100000 a
1!
#420000
0!
